{
  "uid" : "83edc06c07f9ae9e47eb6dd1b683e4e2",
  "name" : "packages",
  "children" : [ {
    "name" : "Realizar Login",
    "uid" : "a6c1de499a9ce023",
    "parentUid" : "83edc06c07f9ae9e47eb6dd1b683e4e2",
    "status" : "skipped",
    "time" : {
      "start" : 1656260343195,
      "stop" : 1656260343204,
      "duration" : 9
    },
    "flaky" : false,
    "newFailed" : false,
    "newPassed" : false,
    "newBroken" : false,
    "retriesCount" : 0,
    "retriesStatusChange" : false,
    "parameters" : [ ]
  }, {
    "name" : "Realizar compra previamente logado",
    "uid" : "7e0c77abcbeaec76",
    "parentUid" : "83edc06c07f9ae9e47eb6dd1b683e4e2",
    "status" : "skipped",
    "time" : {
      "start" : 1656260343205,
      "stop" : 1656260343206,
      "duration" : 1
    },
    "flaky" : false,
    "newFailed" : false,
    "newPassed" : false,
    "newBroken" : false,
    "retriesCount" : 0,
    "retriesStatusChange" : false,
    "parameters" : [ ]
  }, {
    "name" : "Realizar compra sem estar previamente logado",
    "uid" : "e8411557bb07976f",
    "parentUid" : "83edc06c07f9ae9e47eb6dd1b683e4e2",
    "status" : "skipped",
    "time" : {
      "start" : 1656260343205,
      "stop" : 1656260343205,
      "duration" : 0
    },
    "flaky" : false,
    "newFailed" : false,
    "newPassed" : false,
    "newBroken" : false,
    "retriesCount" : 0,
    "retriesStatusChange" : false,
    "parameters" : [ ]
  }, {
    "name" : "Realizar compra e cadastrando endereço de entrega",
    "uid" : "d66fc6291555518e",
    "parentUid" : "83edc06c07f9ae9e47eb6dd1b683e4e2",
    "status" : "failed",
    "time" : {
      "start" : 1656260343206,
      "stop" : 1656260408316,
      "duration" : 65110
    },
    "flaky" : false,
    "newFailed" : false,
    "newPassed" : false,
    "newBroken" : false,
    "retriesCount" : 0,
    "retriesStatusChange" : false,
    "parameters" : [ ]
  } ]
}